Number argment: 3
Arguments: 
D:\DSA_Assignment_11_2017\DSA_DATA\SERVER\SORTINT\mark.exe
D:/DSA_Assignment_11_2017/DSA_DATA/SERVER/SORTINT
D:/DSA_Assignment_11_2017/DSA_DATA/SERVER/SORTINT/STUDENTS/1610852/Submissions/1610852_SORTINT_1513140675835
===============================Dir Process: D:/DSA_Assignment_11_2017/DSA_DATA/SERVER/SORTINT
Dir Submission: D:/DSA_Assignment_11_2017/DSA_DATA/SERVER/SORTINT/STUDENTS/1610852/Submissions/1610852_SORTINT_1513140675835
Number Testcases: 10
Weight testcases: 
0 : 0.05
1 : 0.05
2 : 0.05
3 : 0.05
4 : 0.1
5 : 0.1
6 : 0.1
7 : 0.1
8 : 0.2
9 : 0.2

Test 0 Finished: 0
Test 1 Finished: 0
Test 2 Finished: 0
Test 3 Finished: 0
Test 4 Finished: 0
Test 5 Finished: 0
Test 6 Finished: 0
Test 7 Finished: 0
Test 8 Finished: 1
Test 9 Finished: 0
Total Score: 	2
