Number argment: 3
Arguments: 
D:\DSA_Assignment_11_2017\DSA_DATA\SERVER\SUM2NUM\mark.exe
D:/DSA_Assignment_11_2017/DSA_DATA/SERVER/SUM2NUM
D:/DSA_Assignment_11_2017/DSA_DATA/SERVER/SUM2NUM/STUDENTS/1610800/Submissions/1610800_SUM2NUM_1513140468168
===============================
Dir Process: D:/DSA_Assignment_11_2017/DSA_DATA/SERVER/SUM2NUM
Dir Submission: D:/DSA_Assignment_11_2017/DSA_DATA/SERVER/SUM2NUM/STUDENTS/1610800/Submissions/1610800_SUM2NUM_1513140468168
Number Testcases: 10
Weight testcases: 
0 : 0.1
1 : 0.1
2 : 0.1
3 : 0.1
4 : 0.1
5 : 0.1
6 : 0.1
7 : 0.1
8 : 0.1
9 : 0.1

Test 0 Finished: 0
Test 1 Finished: 0
Test 2 Finished: 0
Test 3 Finished: 0
Test 4 Finished: 0
Test 5 Finished: 0
Test 6 Finished: 0
Test 7 Finished: 0
Test 8 Finished: 0
Test 9 Finished: 0
Total Score: 	0
